Thesis.sim/sim_1/behav/xsim/i2c.vcd
$date
   Wed Oct 25 19:06:31 2023
$end
$version
  2018.1
$end
$timescale
  1ps
$end
$scope module I2C_tb $end
$var reg 1 ! CLK $end
$var reg 1 " CLR $end
$var reg 1 # CE $end
$var reg 3 $ CMD [2:0] $end
$var tri 1 % SCL $end
$var tri 1 & SDA $end
$var reg 1 ' SDA_DRV $end
$var wire 1 ( RDY $end
$var reg 1 ) XC_RQ $end
$var reg 8 * DI [7:0] $end
$var wire 8 + DQ [7:0] $end
$var reg 1 , ACK_I $end
$var wire 1 - ACK_Q $end
$var parameter 3 . COMMAND_START [2:0] $end
$var parameter 3 / COMMAND_STOP [2:0] $end
$var parameter 3 0 COMMAND_WR [2:0] $end
$var parameter 3 1 COMMAND_RD [2:0] $end
$var parameter 3 2 COMMAND_REPEAT_START [2:0] $end
$scope module UUT $end
$var wire 1 3 clk $end
$var wire 1 4 reset_n $end
$var wire 1 5 activate $end
$var wire 3 6 command [2:0] $end
$var wire 11 7 divider [10:0] $end
$var wire 8 8 data_in [7:0] $end
$var wire 1 9 ack_i $end
$var wire 8 + data_out [7:0] $end
$var wire 1 : byte_processed $end
$var wire 1 - ack $end
$var wire 1 ( ready $end
$var wire 1 % scl $end
$var wire 1 & sda $end
$var reg 4 ; current_state [3:0] $end
$var reg 4 < next_state [3:0] $end
$var reg 1 = current_sda $end
$var reg 1 > next_sda $end
$var reg 1 ? current_scl $end
$var reg 1 @ next_scl $end
$var reg 1 A data_phase $end
$var reg 9 B current_transmit [8:0] $end
$var reg 9 C next_transmit [8:0] $end
$var reg 9 D current_receive [8:0] $end
$var reg 9 E next_receive [8:0] $end
$var reg 11 F fdv [10:0] $end
$var reg 3 G current_command [2:0] $end
$var reg 3 H next_command [2:0] $end
$var reg 4 I current_bit [3:0] $end
$var reg 4 J next_bit [3:0] $end
$var reg 1 K current_byte_processed $end
$var reg 1 L next_byte_processed $end
$var reg 1 M ready_reg $end
$var wire 1 N sda_assert $end
$var wire 1 O nack $end
$var wire 16 P half_tick [15:0] $end
$var wire 16 Q quarter_tick [15:0] $end
$var wire 1 R fdv_en $end
$var wire 1 S ce $end
$var wire 1 T bit_ce $end
$var parameter 32 U FDV_W [31:0] $end
$var parameter 5 V STATE_IDLE [4:0] $end
$var parameter 5 W STATE_START_1 [4:0] $end
$var parameter 5 X STATE_START_2 [4:0] $end
$var parameter 5 Y STATE_START_3 [4:0] $end
$var parameter 5 Z STATE_START_4 [4:0] $end
$var parameter 5 [ STATE_HOLD [4:0] $end
$var parameter 5 \ STATE_STOP_1 [4:0] $end
$var parameter 5 ] STATE_STOP_2 [4:0] $end
$var parameter 5 ^ STATE_STOP_3 [4:0] $end
$var parameter 5 _ STATE_STOP_4 [4:0] $end
$var parameter 5 ` STATE_DATA_1 [4:0] $end
$var parameter 5 a STATE_DATA_2 [4:0] $end
$var parameter 5 b STATE_DATA_3 [4:0] $end
$var parameter 5 c STATE_DATA_4 [4:0] $end
$var parameter 5 d STATE_DATA_END [4:0] $end
$var parameter 3 e COMMAND_START [2:0] $end
$var parameter 3 f COMMAND_STOP [2:0] $end
$var parameter 3 g COMMAND_WR [2:0] $end
$var parameter 3 h COMMAND_RD [2:0] $end
$upscope $end
$scope module I2C_BHV $end
$var wire 1 % SCL $end
$var wire 1 & SDA $end
$var integer 32 i STATE $end
$var reg 7 j ADDR [6:0] $end
$var reg 1 k RW $end
$var reg 8 l DATA [7:0] $end
$var reg 8 m DATA_RD [7:0] $end
$var reg 1 n ACK $end
$var reg 1 o SCL_DRV $end
$var reg 1 p SDA_DRV $end
$var reg 1 q SDA_LAST $end
$var reg 1 r SCL_LAST $end
$var reg 1 s SCL_HC $end
$var reg 1 t SDA_HC $end
$var time 64 u SDA_EVENT $end
$var time 64 v SCL_EVENT $end
$var time 64 w SCL_WIDTH $end
$var time 64 x DY $end
$var time 64 y SDA_SETUP $end
$var time 64 z SDA_HOLD $end
$var reg 128 { DEV_ADDR [127:0] $end
$var parameter 32 | SDA_SU [31:0] $end
$var parameter 32 } SCL_LO [31:0] $end
$var parameter 32 ~ SCL_HI [31:0] $end
$var parameter 32 !! SCL_H_TO_SDA_H [31:0] $end
$var parameter 32 "! SCL_H_TO_SDA_L [31:0] $end
$var parameter 32 #! ADDR_1F_00 [31:0] $end
$var parameter 32 $! ADDR_3F_20 [31:0] $end
$var parameter 32 %! ADDR_5F_40 [31:0] $end
$var parameter 32 &! ADDR_7F_60 [31:0] $end
$var parameter 32 '! _fu_param0_274 [31:0] $end
$var parameter 32 (! _fu_param1_274 [31:0] $end
$var parameter 32 )! _fu_param2_274 [31:0] $end
$var parameter 32 *! _fu_param3_274 [31:0] $end
$var parameter 32 +! _fu_param4_274 [31:0] $end
$var parameter 32 ,! _fu_param5_274 [31:0] $end
$var parameter 32 -! _fu_param6_274 [31:0] $end
$var parameter 32 .! _fu_param7_274 [31:0] $end
$var parameter 32 /! _fu_param8_274 [31:0] $end
$var parameter 32 0! _fu_param9_274 [31:0] $end
$var parameter 32 1! _fu_param10_274 [31:0] $end
$var parameter 32 2! _fu_param11_274 [31:0] $end
$var parameter 32 3! _fu_param12_274 [31:0] $end
$var parameter 32 4! _fu_param13_274 [31:0] $end
$var parameter 32 5! _fu_param14_274 [31:0] $end
$var parameter 32 6! _fu_param15_274 [31:0] $end
$var parameter 32 7! _fu_param16_274 [31:0] $end
$var parameter 32 8! _fu_param17_274 [31:0] $end
$var parameter 32 9! _fu_param18_274 [31:0] $end
$var parameter 32 :! _fu_param19_274 [31:0] $end
$var parameter 32 ;! _fu_param20_274 [31:0] $end
$var parameter 32 <! _fu_param21_274 [31:0] $end
$var parameter 32 =! _fu_param22_274 [31:0] $end
$var parameter 32 >! _fu_param23_274 [31:0] $end
$var parameter 32 ?! _fu_param24_274 [31:0] $end
$var parameter 32 @! _fu_param25_274 [31:0] $end
$var parameter 32 A! _fu_param26_274 [31:0] $end
$var parameter 32 B! _fu_param27_274 [31:0] $end
$var parameter 32 C! _fu_param28_274 [31:0] $end
$var parameter 32 D! _fu_param29_274 [31:0] $end
$var parameter 32 E! _fu_param30_274 [31:0] $end
$var parameter 32 F! _fu_param31_274 [31:0] $end
$var parameter 32 G! _fu_param32_274 [31:0] $end
$var parameter 32 H! _fu_param33_274 [31:0] $end
$var parameter 32 I! _fu_param34_274 [31:0] $end
$var parameter 32 J! _fu_param35_274 [31:0] $end
$var parameter 32 K! _fu_param36_274 [31:0] $end
$var parameter 32 L! _fu_param37_274 [31:0] $end
$var parameter 32 M! _fu_param38_274 [31:0] $end
$var parameter 32 N! _fu_param39_274 [31:0] $end
$var parameter 32 O! _fu_param40_274 [31:0] $end
$var parameter 32 P! _fu_param41_274 [31:0] $end
$var parameter 32 Q! _fu_param42_274 [31:0] $end
$var parameter 32 R! _fu_param43_274 [31:0] $end
$var parameter 32 S! _fu_param44_274 [31:0] $end
$var parameter 32 T! _fu_param45_274 [31:0] $end
$var parameter 32 U! _fu_param46_274 [31:0] $end
$var parameter 32 V! _fu_param47_274 [31:0] $end
$var parameter 32 W! _fu_param48_274 [31:0] $end
$var parameter 32 X! _fu_param49_274 [31:0] $end
$var parameter 32 Y! _fu_param50_274 [31:0] $end
$var parameter 32 Z! _fu_param51_274 [31:0] $end
$var parameter 32 [! _fu_param52_274 [31:0] $end
$var parameter 32 \! _fu_param53_274 [31:0] $end
$var parameter 32 ]! _fu_param54_274 [31:0] $end
$var parameter 32 ^! _fu_param55_274 [31:0] $end
$var parameter 32 _! _fu_param56_274 [31:0] $end
$var parameter 32 `! _fu_param57_274 [31:0] $end
$var parameter 32 a! _fu_param58_274 [31:0] $end
$var parameter 32 b! _fu_param59_274 [31:0] $end
$var parameter 32 c! _fu_param60_274 [31:0] $end
$var parameter 32 d! _fu_param61_274 [31:0] $end
$var parameter 32 e! _fu_param62_274 [31:0] $end
$var parameter 32 f! _fu_param63_274 [31:0] $end
$var parameter 32 g! _fu_param64_274 [31:0] $end
$var parameter 32 h! _fu_param65_274 [31:0] $end
$var parameter 32 i! _fu_param66_274 [31:0] $end
$var parameter 32 j! _fu_param67_274 [31:0] $end
$var parameter 32 k! _fu_param68_274 [31:0] $end
$var parameter 32 l! _fu_param69_274 [31:0] $end
$var parameter 32 m! _fu_param70_274 [31:0] $end
$var parameter 32 n! _fu_param71_274 [31:0] $end
$var parameter 32 o! _fu_param72_274 [31:0] $end
$var parameter 32 p! _fu_param73_274 [31:0] $end
$var parameter 32 q! _fu_param74_274 [31:0] $end
$var parameter 32 r! _fu_param75_274 [31:0] $end
$var parameter 32 s! _fu_param76_274 [31:0] $end
$var parameter 32 t! _fu_param77_274 [31:0] $end
$var parameter 32 u! _fu_param78_274 [31:0] $end
$var parameter 32 v! _fu_param79_274 [31:0] $end
$var parameter 32 w! _fu_param80_274 [31:0] $end
$var parameter 32 x! _fu_param81_274 [31:0] $end
$var parameter 32 y! _fu_param82_274 [31:0] $end
$var parameter 32 z! _fu_param83_274 [31:0] $end
$var parameter 32 {! _fu_param84_274 [31:0] $end
$var parameter 32 |! _fu_param85_274 [31:0] $end
$var parameter 32 }! _fu_param86_274 [31:0] $end
$var parameter 32 ~! _fu_param87_274 [31:0] $end
$var parameter 32 !" _fu_param88_274 [31:0] $end
$var parameter 32 "" _fu_param89_274 [31:0] $end
$var parameter 32 #" _fu_param90_274 [31:0] $end
$var parameter 32 $" _fu_param91_274 [31:0] $end
$var parameter 32 %" _fu_param92_274 [31:0] $end
$var parameter 32 &" _fu_param93_274 [31:0] $end
$var parameter 32 '" _fu_param94_274 [31:0] $end
$var parameter 32 (" _fu_param95_274 [31:0] $end
$var parameter 32 )" _fu_param96_274 [31:0] $end
$var parameter 32 *" _fu_param97_274 [31:0] $end
$var parameter 32 +" _fu_param98_274 [31:0] $end
$var parameter 32 ," _fu_param99_274 [31:0] $end
$var parameter 32 -" _fu_param100_274 [31:0] $end
$var parameter 32 ." _fu_param101_274 [31:0] $end
$var parameter 32 /" _fu_param102_274 [31:0] $end
$var parameter 32 0" _fu_param103_274 [31:0] $end
$var parameter 32 1" _fu_param104_274 [31:0] $end
$var parameter 32 2" _fu_param105_274 [31:0] $end
$var parameter 32 3" _fu_param106_274 [31:0] $end
$var parameter 32 4" _fu_param107_274 [31:0] $end
$var parameter 32 5" _fu_param108_274 [31:0] $end
$var parameter 32 6" _fu_param109_274 [31:0] $end
$var parameter 32 7" _fu_param110_274 [31:0] $end
$var parameter 32 8" _fu_param111_274 [31:0] $end
$var parameter 32 9" _fu_param112_274 [31:0] $end
$var parameter 32 :" _fu_param113_274 [31:0] $end
$var parameter 32 ;" _fu_param114_274 [31:0] $end
$var parameter 32 <" _fu_param115_274 [31:0] $end
$var parameter 32 =" _fu_param116_274 [31:0] $end
$var parameter 32 >" _fu_param117_274 [31:0] $end
$var parameter 32 ?" _fu_param118_274 [31:0] $end
$var parameter 32 @" _fu_param119_274 [31:0] $end
$var parameter 32 A" _fu_param120_274 [31:0] $end
$var parameter 32 B" _fu_param121_274 [31:0] $end
$var parameter 32 C" _fu_param122_274 [31:0] $end
$var parameter 32 D" _fu_param123_274 [31:0] $end
$var parameter 32 E" _fu_param124_274 [31:0] $end
$var parameter 32 F" _fu_param125_274 [31:0] $end
$var parameter 32 G" _fu_param126_274 [31:0] $end
$var parameter 32 H" _fu_param127_274 [31:0] $end
$var parameter 32 I" T_SDA_SETUP [31:0] $end
$var parameter 32 J" T_SDA_HOLD [31:0] $end
$var parameter 32 K" SCL_LOW_MIN [31:0] $end
$var parameter 32 L" SCL_HIGH_MIN [31:0] $end
$var parameter 32 M" START_STOP_DY [31:0] $end
$scope task LIST_DEV $end
$var integer 32 N" i $end
$upscope $end
$upscope $end
$scope task I2C_DO $end
$var reg 8 O" DATA [7:0] $end
$var reg 1 P" ACK $end
$var reg 1 Q" REP_START $end
$var reg 1 R" DO_STOP $end
$var reg 1 S" DO_START $end
$var reg 1 T" READ_WRITE $end
$upscope $end
$upscope $end
$enddefinitions $end
#0
$dumpvars
0!
b11110 !!
b1011000 !"
1"
b11110 "!
b1011001 ""
x#
b0 #!
b1011010 #"
bx $
b10 $!
b1011011 $"
1%
b0 %!
b1011100 %"
1&
b10000000000000000000000000000000 &!
b1011101 &"
z'
b0 '!
b1011110 '"
1(
b1 (!
b1011111 ("
0)
b10 )!
b1100000 )"
bx *
b11 *!
b1100001 *"
b0 +
b100 +!
b1100010 +"
x,
b101 ,!
b1100011 ,"
0-
b110 -!
b1100100 -"
b0 .
b111 .!
b1100101 ."
b1 /
b1000 /!
b1100110 /"
b10 0
b1001 0!
b1100111 0"
b11 1
b1010 1!
b1101000 1"
b100 2
b1011 2!
b1101001 2"
03
b1100 3!
b1101010 3"
04
b1101 4!
b1101011 4"
05
b1110 5!
b1101100 5"
bx 6
b1111 6!
b1101101 6"
b100 7
b10000 7!
b1101110 7"
bx 8
b10001 8!
b1101111 8"
x9
b10010 9!
b1110000 9"
0:
b10011 :!
b1110001 :"
b0 ;
b10100 ;!
b1110010 ;"
b0 <
b10101 <!
b1110011 <"
1=
b10110 =!
b1110100 ="
1>
b10111 >!
b1110101 >"
1?
b11000 ?!
b1110110 ?"
1@
b11001 @!
b1110111 @"
0A
b11010 A!
b1111000 A"
b0 B
b11011 B!
b1111001 B"
b0 C
b11100 C!
b1111010 C"
b0 D
b11101 D!
b1111011 D"
b0 E
b11110 E!
b1111100 E"
b0 F
b11111 F!
b1111101 F"
b0 G
b100000 G!
b1111110 G"
b0 H
b100001 H!
b1111111 H"
b0 I
b100010 I!
b1010 I"
b0 J
b100011 J!
b0 J"
0K
b100100 K!
b101000 K"
0L
b100101 L!
b101000 L"
1M
b100110 M!
b101000 M"
0N
b100111 N!
bx N"
xO
b101000 O!
bx O"
bz P
b101001 P!
xP"
bz Q
b101010 Q!
xQ"
0R
b101011 R!
xR"
0S
b101100 S!
xS"
0T
b101101 T!
xT"
b1011 U
b101110 U!
b0 V
b101111 V!
b1 W
b110000 W!
b10 X
b110001 X!
b11 Y
b110010 Y!
b100 Z
b110011 Z!
b101 [
b110100 [!
b110 \
b110101 \!
b111 ]
b110110 ]!
b1000 ^
b110111 ^!
b1001 _
b111000 _!
b1010 `
b111001 `!
b1011 a
b111010 a!
b1100 b
b111011 b!
b1101 c
b111100 c!
b1110 d
b111101 d!
b0 e
b111110 e!
b1 f
b111111 f!
b10 g
b1000000 g!
b11 h
b1000001 h!
b0 i
b1000010 i!
bx j
b1000011 j!
xk
b1000100 k!
bx l
b1000101 l!
bx m
b1000110 m!
1n
b1000111 n!
zo
b1001000 o!
zp
b1001001 p!
1q
b1001010 q!
1r
b1001011 r!
0s
b1001100 s!
0t
b1001101 t!
b0 u
b1001110 u!
b0 v
b1001111 v!
b0 w
b1010000 w!
bx x
b1010001 x!
b0 y
b1010010 y!
bx z
b1010011 z!
b10000000000000000000000000000000000000000000000000000000000000000000000000000000000000000000001000000000000000000000000000000000 {
b1010100 {!
b101000 |
b1010101 |!
b101000 }
b1010110 }!
b101000 ~
b1010111 ~!
$end
#5000
1!
0(
13
b0 ;
1=
1?
b0 B
b0 D
b0 F
b0 G
b0 I
0K
0M
1R
#10000
0!
03
#15000
1!
13
b0 ;
1=
1?
b0 B
b0 D
b0 F
b0 G
b0 I
0K
0M
#20000
0!
0"
03
14
#25000
1!
1(
13
b0 ;
b0 <
1=
1?
b0 B
b0 C
b0 D
b0 E
b11111111111 F
b0 G
b0 H
b0 I
b0 J
0K
1M
0R
1S
0T
#30000
0!
03
#35000
1!
1(
13
b0 ;
b0 <
1=
1?
b0 B
b0 C
b0 D
b0 E
b11 F
b0 G
b0 H
b0 I
b0 J
0K
1M
0S
0T
#40000
0!
03
#45000
1!
13
b0 ;
1=
1?
b0 B
b0 D
b11 F
b0 G
b0 I
0K
#50000
0!
03
b1000011 O"
1P"
0Q"
0R"
1S"
0T"
b1010101 m
#55000
1!
13
b0 ;
1=
1?
b0 B
b0 D
b11 F
b0 G
b0 I
0K
#60000
0!
b0 $
1(
1)
b1000011 *
03
15
b0 6
b1000011 8
b1 <
b1000011x C
b0 E
b0 H
b0 J
1M
#65000
1!
0(
13
b1 ;
b1 <
1=
0>
1?
b1000011x B
b1000011x C
b0 D
b0 E
b11 F
b0 G
b0 H
b0 I
b0 J
0K
0M
1R
0T
#70000
0!
b10 $
03
b10 6
b1 <
0>
b1000011x C
b0 E
b0 H
b0 J
#75000
1!
0&
13
b1 ;
b1 <
0=
0>
1?
b1000011x B
b1000011x C
b0 D
b0 E
b10 F
b0 G
b0 H
b0 I
b0 J
0K
b1 i
0q
b1001011 u
#80000
0!
0)
bx *
03
05
bx 8
b1 <
0>
b1000011x C
b0 E
b0 H
b0 J
#85000
1!
13
b1 ;
0=
1?
b1000011x B
b0 D
b1 F
b0 G
b0 I
0K
#90000
0!
03
#95000
1!
13
b1 ;
0=
1?
b1000011x B
b0 D
b0 F
b0 G
b0 I
0K
#100000
0!
03
#105000
1!
13
b1 ;
b10 <
0=
0>
1?
b1000011x B
b1000011x C
b0 D
b0 E
b11111111111 F
b0 G
b0 H
b0 I
b0 J
0K
1S
0T
#110000
0!
03
#115000
1!
13
b10 ;
b10 <
0=
0>
1?
b1000011x B
b1000011x C
b0 D
b0 E
b11 F
b0 G
b0 H
b0 I
b0 J
0K
0S
0T
#120000
0!
03
#125000
1!
13
b10 ;
0=
1?
b1000011x B
b0 D
b10 F
b0 G
b0 I
0K
#130000
0!
03
#135000
1!
13
b10 ;
0=
1?
b1000011x B
b0 D
b1 F
b0 G
b0 I
0K
#140000
0!
03
#145000
1!
13
b10 ;
0=
1?
b1000011x B
b0 D
b0 F
b0 G
b0 I
0K
#150000
0!
03
#155000
1!
13
b10 ;
b11 <
0=
0>
1?
b1000011x B
b1000011x C
b0 D
b0 E
b11111111111 F
b0 G
b0 H
b0 I
b0 J
0K
1S
0T
#160000
0!
03
#165000
1!
13
b11 ;
b11 <
0=
0>
1?
0@
b1000011x B
b1000011x C
b0 D
b0 E
b11 F
b0 G
b0 H
b0 I
b0 J
0K
0S
0T
#170000
0!
03
#175000
1!
0%
13
b11 ;
0=
0?
b1000011x B
b0 D
b10 F
b0 G
b0 I
0K
b10 i
0r
b10101111 v
b10101111 w
b1100100 y
#180000
0!
03
#185000
1!
13
b11 ;
0=
0?
b1000011x B
b0 D
b1 F
b0 G
b0 I
0K
#190000
0!
03
#195000
1!
13
b11 ;
0=
0?
b1000011x B
b0 D
b0 F
b0 G
b0 I
0K
#200000
0!
03
#205000
1!
13
b11 ;
b100 <
0=
0>
0?
0@
b1000011x B
b1000011x C
b0 D
b0 E
b11111111111 F
b0 G
b0 H
b0 I
b0 J
0K
1S
0T
#210000
0!
03
#215000
1!
13
b100 ;
b100 <
0=
0>
0?
0@
b1000011x B
b1000011x C
b0 D
b0 E
b11 F
b0 G
b0 H
b0 I
b0 J
0K
0S
0T
#220000
0!
03
#225000
1!
13
b100 ;
0=
0?
b1000011x B
b0 D
b10 F
b0 G
b0 I
0K
#230000
0!
03
#235000
1!
13
b100 ;
0=
0?
b1000011x B
b0 D
b1 F
b0 G
b0 I
0K
#240000
0!
03
#245000
1!
13
b100 ;
0=
0?
b1000011x B
b0 D
b0 F
b0 G
b0 I
0K
#250000
0!
03
#255000
1!
13
b100 ;
b101 <
0=
0>
0?
0@
b1000011x B
b1000011x C
b0 D
b0 E
b11111111111 F
b0 G
b0 H
b0 I
b0 J
0K
1S
0T
#260000
0!
03
#265000
1!
1(
13
b101 ;
b101 <
0=
0>
0?
0@
b1000011x B
b1000011x C
b0 D
b0 E
b11 F
b0 G
b0 H
b0 I
b0 J
0K
1M
0R
0S
0T
#270000
0!
03
b11111111 O"
0P"
0Q"
0R"
0S"
1T"
#275000
1!
13
b101 ;
0=
0?
b1000011x B
b0 D
b11 F
b0 G
b0 I
0K
#280000
0!
1(
1)
b11111111 *
03
15
b11111111 8
b1010 <
0>
0@
b1000011x C
b0 E
b10 H
b0 J
1M
#285000
1!
0(
13
b1010 ;
b1010 <
0=
0>
0?
0@
1A
b1000011x B
b1000011x C
b0 D
b0 E
b11 F
b10 G
b10 H
b0 I
b0 J
0K
0M
0N
1R
0T
#290000
0!
b11 $
03
b11 6
b1010 <
0>
0@
1A
b1000011x C
b0 E
b10 H
b0 J
0N
#295000
1!
13
b1010 ;
0=
0?
b1000011x B
b0 D
b10 F
b10 G
b0 I
0K
#300000
0!
03
#305000
1!
13
b1010 ;
0=
0?
b1000011x B
b0 D
b1 F
b10 G
b0 I
0K
#310000
0!
03
#315000
1!
13
b1010 ;
0=
0?
b1000011x B
b0 D
b0 F
b10 G
b0 I
0K
#320000
0!
03
#325000
1!
13
b1010 ;
b1011 <
0=
0>
0?
0@
1A
b1000011x B
b1000011x C
b0 D
b0 E
b11111111111 F
b10 G
b10 H
b0 I
b0 J
0K
0N
1S
0T
#330000
0!
03
#335000
1!
13
b1011 ;
b1011 <
0=
0>
0?
1@
1A
b1000011x B
b1000011x C
b0 D
b0 E
b11 F
b10 G
b10 H
b0 I
b0 J
0K
0N
0S
0T
#340000
0!
03
#345000
1!
1%
13
b1011 ;
0=
1?
b1000011x B
b0 D
b10 F
b10 G
b0 I
0K
b0xxxxxx j
1r
b101011001 v
b10101010 w
b100001110 y
#350000
0!
03
#355000
1!
13
b1011 ;
0=
1?
b1000011x B
b0 D
b1 F
b10 G
b0 I
0K
#360000
0!
03
#365000
1!
13
b1011 ;
0=
1?
b1000011x B
b0 D
b0 F
b10 G
b0 I
0K
#370000
0!
03
#375000
1!
13
b1011 ;
b1100 <
0=
0>
1?
1A
b1000011x B
b1000011x C
b0 D
b0 E
b11111111111 F
b10 G
b10 H
b0 I
b0 J
0K
0N
1S
0T
#380000
0!
03
#385000
1!
13
b1100 ;
b1100 <
0=
0>
1?
1A
b1000011x B
b1000011x C
b0 D
b0 E
b11 F
b10 G
b10 H
b0 I
b0 J
0K
0N
0S
0T
#390000
0!
03
#395000
1!
13
b1100 ;
0=
1?
b1000011x B
b0 D
b10 F
b10 G
b0 I
0K
#400000
0!
03
#405000
1!
13
b1100 ;
0=
1?
b1000011x B
b0 D
b1 F
b10 G
b0 I
0K
#410000
0!
03
#415000
1!
13
b1100 ;
0=
1?
b1000011x B
b0 D
b0 F
b10 G
b0 I
0K
#420000
0!
03
#425000
1!
13
b1100 ;
b1101 <
0=
0>
1?
1A
b1000011x B
b1000011x C
b0 D
b0 E
b11111111111 F
b10 G
b10 H
b0 I
b0 J
0K
0N
1S
1T
#430000
0!
03
#435000
1!
13
b1101 ;
b1101 <
0=
0>
1?
0@
1A
b1000011x B
b1000011x C
b0 D
b0 E
b11 F
b10 G
b10 H
b0 I
b0 J
0K
0N
0S
0T
#440000
0!
03
#445000
1!
0%
13
b1101 ;
0=
0?
b1000011x B
b0 D
b10 F
b10 G
b0 I
0K
b11 i
0r
b110111101 v
b1100100 w
b101110010 y
#450000
0!
03
#455000
1!
13
b1101 ;
0=
0?
b1000011x B
b0 D
b1 F
b10 G
b0 I
0K
#460000
0!
03
#465000
1!
13
b1101 ;
0=
0?
b1000011x B
b0 D
b0 F
b10 G
b0 I
0K
#470000
0!
03
#475000
1!
13
b1101 ;
b1010 <
0=
0>
0?
0@
1A
b1000011x B
b1000011x0 C
b0 D
b0 E
b11111111111 F
b10 G
b10 H
b0 I
b1 J
0K
0N
1S
0T
#480000
0!
03
#485000
1!
13
b1010 ;
b1010 <
0=
1>
0?
0@
1A
b1000011x0 B
b1000011x0 C
b0 D
b0 E
b11 F
b10 G
b10 H
b1 I
b1 J
0K
0N
0S
0T
#490000
0!
03
#495000
1!
1&
13
b1010 ;
b1010 <
1=
0?
0@
1A
b1000011x0 B
b1000011x0 C
b0 D
b0 E
b10 F
b10 G
b10 H
b1 I
b1 J
0K
0N
1q
b111101111 u
#500000
0!
03
#505000
1!
13
b1010 ;
1=
0?
b1000011x0 B
b0 D
b1 F
b10 G
b1 I
0K
#510000
0!
03
#515000
1!
13
b1010 ;
1=
0?
b1000011x0 B
b0 D
b0 F
b10 G
b1 I
0K
#520000
0!
03
#525000
1!
13
b1010 ;
b1011 <
1=
0?
0@
1A
b1000011x0 B
b1000011x0 C
b0 D
b0 E
b11111111111 F
b10 G
b10 H
b1 I
b1 J
0K
0N
1S
0T
#530000
0!
03
#535000
1!
13
b1011 ;
b1011 <
1=
0?
1@
1A
b1000011x0 B
b1000011x0 C
b0 D
b0 E
b11 F
b10 G
b10 H
b1 I
b1 J
0K
0N
0S
0T
#540000
0!
03
#545000
1!
1%
13
b1011 ;
1=
1?
b1000011x0 B
b0 D
b10 F
b10 G
b1 I
0K
b1xxxxx j
1r
b1000100001 v
b1100100 w
b110010 y
#550000
0!
03
#555000
1!
13
b1011 ;
1=
1?
b1000011x0 B
b0 D
b1 F
b10 G
b1 I
0K
#560000
0!
03
#565000
1!
13
b1011 ;
1=
1?
b1000011x0 B
b0 D
b0 F
b10 G
b1 I
0K
#570000
0!
03
#575000
1!
13
b1011 ;
b1100 <
1=
1?
1A
b1000011x0 B
b1000011x0 C
b0 D
b1 E
b11111111111 F
b10 G
b10 H
b1 I
b1 J
0K
0N
1S
0T
#580000
0!
03
#585000
1!
1-
13
b1100 ;
b1100 <
1=
1?
1A
b1000011x0 B
b1000011x0 C
b1 D
b1 E
b11 F
b10 G
b10 H
b1 I
b1 J
0K
0N
0S
0T
#590000
0!
03
#595000
1!
13
b1100 ;
1=
1?
b1000011x0 B
b1 D
b10 F
b10 G
b1 I
0K
#600000
0!
03
#605000
1!
13
b1100 ;
1=
1?
b1000011x0 B
b1 D
b1 F
b10 G
b1 I
0K
#610000
0!
03
#615000
1!
13
b1100 ;
1=
1?
b1000011x0 B
b1 D
b0 F
b10 G
b1 I
0K
#620000
0!
03
#625000
1!
13
b1100 ;
b1101 <
1=
1?
1A
b1000011x0 B
b1000011x0 C
b1 D
b1 E
b11111111111 F
b10 G
b10 H
b1 I
b1 J
0K
0N
1S
1T
#630000
0!
03
#635000
1!
13
b1101 ;
b1101 <
1=
1?
0@
1A
b1000011x0 B
b1000011x0 C
b1 D
b1 E
b11 F
b10 G
b10 H
b1 I
b1 J
0K
0N
0S
0T
#640000
0!
03
#645000
1!
0%
13
b1101 ;
1=
0?
b1000011x0 B
b1 D
b10 F
b10 G
b1 I
0K
b100 i
0r
b1010000101 v
b1100100 w
b10010110 y
#650000
0!
03
#655000
1!
13
b1101 ;
1=
0?
b1000011x0 B
b1 D
b1 F
b10 G
b1 I
0K
#660000
0!
03
#665000
1!
13
b1101 ;
1=
0?
b1000011x0 B
b1 D
b0 F
b10 G
b1 I
0K
#670000
0!
03
#675000
1!
13
b1101 ;
b1010 <
1=
0?
0@
1A
b1000011x0 B
b11x00 C
b1 D
b1 E
b11111111111 F
b10 G
b10 H
b1 I
b10 J
0K
0N
1S
0T
#680000
0!
03
#685000
1!
13
b1010 ;
b1010 <
1=
0>
0?
0@
1A
b11x00 B
b11x00 C
b1 D
b1 E
b11 F
b10 G
b10 H
b10 I
b10 J
0K
0N
0S
0T
#690000
0!
03
#695000
1!
0&
13
b1010 ;
b1010 <
0=
0>
0?
0@
1A
b11x00 B
b11x00 C
b1 D
b1 E
b10 F
b10 G
b10 H
b10 I
b10 J
0K
0N
0q
b1010110111 u
#700000
0!
03
#705000
1!
13
b1010 ;
0=
0?
b11x00 B
b1 D
b1 F
b10 G
b10 I
0K
#710000
0!
03
#715000
1!
13
b1010 ;
0=
0?
b11x00 B
b1 D
b0 F
b10 G
b10 I
0K
#720000
0!
03
#725000
1!
13
b1010 ;
b1011 <
0=
0>
0?
0@
1A
b11x00 B
b11x00 C
b1 D
b1 E
b11111111111 F
b10 G
b10 H
b10 I
b10 J
0K
0N
1S
0T
#730000
0!
03
#735000
1!
13
b1011 ;
b1011 <
0=
0>
0?
1@
1A
b11x00 B
b11x00 C
b1 D
b1 E
b11 F
b10 G
b10 H
b10 I
b10 J
0K
0N
0S
0T
#740000
0!
03
#745000
1!
1%
13
b1011 ;
0=
1?
b11x00 B
b1 D
b10 F
b10 G
b10 I
0K
b10xxxx j
1r
b1011101001 v
b1100100 w
b110010 y
#750000
0!
03
#755000
1!
13
b1011 ;
0=
1?
b11x00 B
b1 D
b1 F
b10 G
b10 I
0K
#760000
0!
03
#765000
1!
13
b1011 ;
0=
1?
b11x00 B
b1 D
b0 F
b10 G
b10 I
0K
#770000
0!
03
#775000
1!
13
b1011 ;
b1100 <
0=
0>
1?
1A
b11x00 B
b11x00 C
b1 D
b10 E
b11111111111 F
b10 G
b10 H
b10 I
b10 J
0K
0N
1S
0T
#780000
0!
03
#785000
1!
b1 +
0-
13
b1100 ;
b1100 <
0=
0>
1?
1A
b11x00 B
b11x00 C
b10 D
b10 E
b11 F
b10 G
b10 H
b10 I
b10 J
0K
0N
0S
0T
#790000
0!
03
#795000
1!
13
b1100 ;
0=
1?
b11x00 B
b10 D
b10 F
b10 G
b10 I
0K
#800000
0!
03
#805000
1!
13
b1100 ;
0=
1?
b11x00 B
b10 D
b1 F
b10 G
b10 I
0K
#810000
0!
03
#815000
1!
13
b1100 ;
0=
1?
b11x00 B
b10 D
b0 F
b10 G
b10 I
0K
#820000
0!
03
#825000
1!
13
b1100 ;
b1101 <
0=
0>
1?
1A
b11x00 B
b11x00 C
b10 D
b10 E
b11111111111 F
b10 G
b10 H
b10 I
b10 J
0K
0N
1S
1T
#830000
0!
03
#835000
1!
13
b1101 ;
b1101 <
0=
0>
1?
0@
1A
b11x00 B
b11x00 C
b10 D
b10 E
b11 F
b10 G
b10 H
b10 I
b10 J
0K
0N
0S
0T
#840000
0!
03
